%YAML 1.1
%TAG !u! tag:unity3d.com,2011:
--- !u!114 &11400000
MonoBehaviour:
  m_ObjectHideFlags: 0
  m_CorrespondingSourceObject: {fileID: 0}
  m_PrefabInstance: {fileID: 0}
  m_PrefabAsset: {fileID: 0}
  m_GameObject: {fileID: 0}
  m_Enabled: 1
  m_EditorHideFlags: 0
  m_Script: {fileID: 11500000, guid: 73b6b8899d8f4f74b093e025357509e5, type: 3}
  m_Name: Spring
  m_EditorClassIdentifier: 
  m_BorderSprite: {fileID: 21300000, guid: fa94e0265018dc541b68bee96a582538, type: 3}
  m_PlatformsList:
  - {fileID: -2095270738218825825, guid: 1f53b4da0ea9f554798de3c61054e7e0, type: 3}
  - {fileID: 544644356218158095, guid: fe27fb8dd60e9a2499714ab636990378, type: 3}
  - {fileID: 8682979983578644868, guid: 5e2b2919ee3d3554f8fc153bbee4522e, type: 3}
  m_BackgroundSprite: {fileID: 21300000, guid: 9691aafae7b31784bb166341139164ee, type: 3}
  m_UiPlatformSprite: {fileID: 21300000, guid: e2c60466fe947d44bb9c51fc5e92b0ca, type: 3}
  m_PlatformSprite: {fileID: 21300000, guid: 59000ffcff2850a4498456ef10f1f9b1, type: 3}
  m_Id: 1
  m_Price: 20
