%YAML 1.1
%TAG !u! tag:unity3d.com,2011:
--- !u!78 &1
TagManager:
  serializedVersion: 2
  tags: []
  layers:
  - Default
  - TransparentFX
  - Ignore Raycast
  - 
  - Water
  - UI
  - 
  - 
  - Player
  - Informing
  - 
  - 
  - 
  - 
  - 
  - 
  - 
  - 
  - 
  - 
  - 
  - 
  - 
  - 
  - 
  - 
  - 
  - 
  - 
  - 
  - 
  - 
  m_SortingLayers:
  - name: Default
    uniqueID: 0
    locked: 0
  - name: Background
    uniqueID: 2807783749
    locked: 0
  - name: Clouds
    uniqueID: 2948572431
    locked: 0
  - name: GamePlay
    uniqueID: 2447690433
    locked: 0
  - name: Platforms
    uniqueID: 3427341103
    locked: 0
  - name: Camera
    uniqueID: 1975941157
    locked: 0
  - name: Player
    uniqueID: 3934683051
    locked: 0
