%YAML 1.1
%TAG !u! tag:unity3d.com,2011:
--- !u!114 &11400000
MonoBehaviour:
  m_ObjectHideFlags: 0
  m_CorrespondingSourceObject: {fileID: 0}
  m_PrefabInstance: {fileID: 0}
  m_PrefabAsset: {fileID: 0}
  m_GameObject: {fileID: 0}
  m_Enabled: 1
  m_EditorHideFlags: 0
  m_Script: {fileID: 11500000, guid: 6826de7983d4ad140b6516d543673557, type: 3}
  m_Name: Jump
  m_EditorClassIdentifier: 
  m_MixerGroup: {fileID: -6855820895287905500, guid: df39279de3e6980418bd350576a33ccb,
    type: 2}
  m_Clip: {fileID: 8300000, guid: ff78ac4946d24e44eb9db4495bc388de, type: 3}
  m_SoundType: 3
  m_Volume: 1
  m_Loop: 0
