%YAML 1.1
%TAG !u! tag:unity3d.com,2011:
--- !u!114 &11400000
MonoBehaviour:
  m_ObjectHideFlags: 0
  m_CorrespondingSourceObject: {fileID: 0}
  m_PrefabInstance: {fileID: 0}
  m_PrefabAsset: {fileID: 0}
  m_GameObject: {fileID: 0}
  m_Enabled: 1
  m_EditorHideFlags: 0
  m_Script: {fileID: 11500000, guid: 7dc97a886f7c4e36b67a70c75c53254d, type: 3}
  m_Name: AudioManager
  m_EditorClassIdentifier: 
  m_AudioMixer: {fileID: 24100000, guid: df39279de3e6980418bd350576a33ccb, type: 2}
  m_SoundConfigs:
  - {fileID: 11400000, guid: 0372339080cee6940950020f88453b2e, type: 2}
  - {fileID: 11400000, guid: 0c1e8c0661d89664b861b36a35eb655f, type: 2}
  - {fileID: 11400000, guid: c5f63724b73f0ce4cafd056613551266, type: 2}
  - {fileID: 11400000, guid: 6b5b4479d775ca248a9860d95a3fc5f9, type: 2}
